<svg xmlns="http://www.w3.org/2000/svg" width="22" height="17" viewBox="0 0 22 17">
    <path fill="#FFF" fill-rule="evenodd" d="M.832.324l1.367.537 17.188 7.032 1.758.732-1.758.732L2.199 16.39l-1.367.537.293-1.465 1.563-6.836-1.563-6.836L.832.324zm2.148 2.54l1.075 4.98H15.09L2.98 2.864zm1.075 6.542l-1.075 4.98 12.11-4.98H4.055z"/>
</svg>
