<svg xmlns="http://www.w3.org/2000/svg" width="96" height="17" viewBox="0 0 96 17">
    <path fill="#FFF" fill-rule="evenodd" d="M11.416 5.908c-.232-1.002-.8-1.702-1.702-2.1a4.18 4.18 0 0 0-1.682-.329c-1.18 0-2.151.446-2.911 1.339-.76.892-1.14 2.234-1.14 4.026 0 1.805.412 3.082 1.234 3.832.823.75 1.759 1.124 2.807 1.124 1.029 0 1.871-.297 2.528-.89.657-.594 1.062-1.372 1.215-2.334H8.37V8.127h6.11V16h-2.03l-.308-1.831c-.59.696-1.122 1.187-1.593 1.473-.81.497-1.805.746-2.986.746-1.944 0-3.536-.673-4.777-2.02C1.493 13.014.846 11.163.846 8.814c0-2.376.654-4.28 1.96-5.713C4.115 1.667 5.843.95 7.993.95c1.865 0 3.363.473 4.494 1.418 1.132.946 1.78 2.125 1.946 3.539h-3.016zm10.046-.757v6.54c0 .616.073 1.08.219 1.393.259.55.766.826 1.523.826.968 0 1.632-.392 1.99-1.175.186-.424.279-.985.279-1.682V5.151h2.876V16h-2.757v-1.533a5.225 5.225 0 0 0-.199.299 1.998 1.998 0 0 1-.378.438c-.445.398-.874.67-1.289.816-.415.146-.9.219-1.458.219-1.606 0-2.687-.577-3.245-1.732-.312-.637-.468-1.576-.468-2.817V5.151h2.907zm16.973-.259c.053 0 .098.002.134.005.037.004.118.009.244.015V7.82a7.694 7.694 0 0 0-.816-.05c-1.142 0-1.908.371-2.3 1.115-.218.418-.328 1.061-.328 1.93V16h-2.856V5.151h2.707v1.891c.438-.723.82-1.217 1.144-1.483.531-.444 1.221-.667 2.07-.667zm9.478 5.833c-.18.113-.36.204-.543.274-.182.07-.432.134-.751.194l-.637.12c-.597.105-1.025.235-1.284.387-.438.259-.657.66-.657 1.205 0 .484.135.834.403 1.05.269.215.596.323.98.323.611 0 1.173-.179 1.688-.537.514-.359.781-1.012.8-1.961v-1.055zM46.19 9.4c.524-.066.9-.15 1.125-.249.404-.172.607-.441.607-.806 0-.445-.154-.751-.463-.92-.308-.17-.761-.254-1.359-.254-.67 0-1.144.165-1.423.497-.199.246-.332.578-.398.996h-2.737c.06-.95.325-1.729.796-2.34.75-.955 2.037-1.433 3.862-1.433 1.188 0 2.243.236 3.165.707.922.471 1.384 1.36 1.384 2.667v4.977c0 .345.006.763.02 1.254.02.372.076.624.169.757.093.132.232.242.418.328V16H48.27a3.16 3.16 0 0 1-.179-.617 7.44 7.44 0 0 1-.08-.657 5.828 5.828 0 0 1-1.353 1.085c-.61.352-1.3.527-2.07.527-.982 0-1.794-.28-2.434-.84-.64-.561-.96-1.356-.96-2.384 0-1.334.514-2.3 1.542-2.897.564-.325 1.394-.557 2.489-.696l.965-.12zm8.762-8.072h3.065v12.033h7.266V16H54.953V1.33zm19.66 9.396c-.18.113-.36.204-.543.274-.182.07-.433.134-.751.194l-.637.12c-.597.105-1.025.235-1.284.387-.438.259-.657.66-.657 1.205 0 .484.134.834.403 1.05.269.215.596.323.98.323.611 0 1.173-.179 1.688-.537.514-.359.781-1.012.8-1.961v-1.055zM72.89 9.4c.524-.066.9-.15 1.125-.249.404-.172.607-.441.607-.806 0-.445-.154-.751-.463-.92-.309-.17-.761-.254-1.359-.254-.67 0-1.144.165-1.423.497-.199.246-.332.578-.398.996h-2.737c.06-.95.325-1.729.796-2.34.75-.955 2.037-1.433 3.862-1.433 1.188 0 2.243.236 3.165.707.922.471 1.384 1.36 1.384 2.667v4.977c0 .345.006.763.02 1.254.02.372.076.624.169.757.093.132.232.242.418.328V16H74.97a3.16 3.16 0 0 1-.179-.617 7.44 7.44 0 0 1-.08-.657 5.828 5.828 0 0 1-1.353 1.085c-.61.352-1.3.527-2.07.527-.983 0-1.794-.28-2.434-.84-.64-.561-.96-1.356-.96-2.384 0-1.334.514-2.3 1.542-2.897.564-.325 1.394-.557 2.489-.696l.965-.12zm13.649-4.25h2.876l1.652 7.813 1.692-7.813h2.956L92.571 16h-2.916l-1.702-7.903L86.23 16h-2.946L80.239 5.151h3.046l1.692 7.783 1.563-7.783z"/>
</svg>
