<svg xmlns="http://www.w3.org/2000/svg" width="619" height="489" viewBox="0 0 619 489">
    <g fill="none" fill-rule="evenodd">
        <path fill="#2C4482" d="M284.394 480.814L8.534 321.534a17.1 17.1 0 0 1 0-29.6l274.76-158.66a54.42 54.42 0 0 1 54.36 0l270.42 156.12a21.36 21.36 0 0 1 0 36.98l-267.42 154.4a56.3 56.3 0 0 1-56.26.04z"/>
        <path fill="#ADD5F7" d="M284.394 460.77L8.534 301.51a17.1 17.1 0 0 1 0-29.6l274.76-158.62a54.32 54.32 0 0 1 54.36 0l270.42 156.12a21.36 21.36 0 0 1 0 36.98l-267.42 154.38a56.3 56.3 0 0 1-56.26 0z"/>
        <ellipse cx="251.3" cy="336.324" fill="#A8C4E5" opacity=".4" rx="26.08" ry="45.16" style="mix-blend-mode:multiply" transform="rotate(-89.69 251.3 336.324)"/>
        <ellipse cx="367.3" cy="300.324" fill="#A8C4E5" opacity=".4" rx="26.08" ry="45.16" style="mix-blend-mode:multiply" transform="rotate(-89.69 367.3 300.324)"/>
        <path fill="#2C4482" d="M240.257 315.99l-19.34 4-2.6 6.7c-.62 4.82-.6 7.38 2.6 10 2.68 2.14 8.16.48 11.02-.84l12.42-7.48c9.2-5.08 8.5-8.84 7.52-12-1.48-3.54-5.74-2.64-11.62-.38zM281.682 340.32l-18.7-6.32-5.62 4.48c-2.96 3.86-4.22 6-2.74 9.88 1.24 3.2 6.8 4.52 10 4.82l14.5-.2c10.52.24 11.8-3.36 12.5-6.54.42-3.68-3.66-5.14-9.94-6.12zM332.947 280.6l17.88-8.6 9.32.32c.56 12.34-.5 10.64-4.54 12.94l-15.16 5.6c-7.76 2-10.1 2-13.86-.76-1.94-3.1 1.12-6.06 6.36-9.5zM384.673 313.42l6-18.88 6.66-6.54c9.34 8 7.38 7.68 6.26 12.2l-6.38 14.86c-4 6.96-5.58 8.64-10 9.52-3.66-.76-3.7-5.02-2.54-11.16z"/>
        <path fill="#FFC2B0" d="M216.208 100.461c-10.56 16-15.22 36.38-19.38 54.84a18.28 18.28 0 0 0-.18 10.26c3.52 12.96 7.5 25.08 9.02 38.6.76 6.82 11.56 6.9 10.78 0a179.18 179.18 0 0 0-7.82-36.94c-.76-2.26-1.58-4.5-2.44-6.72.78 2-.26 3.54.14 1.72.26-1.14.5-2.28.76-3.42 4-17.78 8.28-37.52 18.42-52.9 3.82-5.8-5.5-11.2-9.3-5.44z"/>
        <path fill="#88BDEB" d="M211.833 103.7c-7.12 12.42-12.3 33.44-16.98 50.44-1.78 4.7-.66 8.96 2.3 8.76l10 1.38c2.46-.16 7.12-5.46 8.26-9.38l12.58-43.26c2-7.04.54-13.08-3.5-14l-.9-.12c-.78-2.6-6.38-2.64-11.76 6.18z"/>
        <path fill="#283D75" d="M245.26 183.505l-49.76 28.76a3.68 3.68 0 0 1-5.5-3.16v-34.7a3.66 3.66 0 0 1 1.84-3.16l49.8-28.76a3.66 3.66 0 0 1 5.48 3.18v34.68a3.66 3.66 0 0 1-1.86 3.16z"/>
        <path fill="#FFF" d="M226.68 172.49a14 14 0 0 1-6.34 10.94c-3.5 2-6.34.4-6.34-3.62a14 14 0 0 1 6.34-10.94c3.5-2.02 6.34-.4 6.34 3.62z"/>
        <path fill="#FFC2B0" d="M219.47 204.63l-3.62 1.64a5.58 5.58 0 0 1-7.36-2.78 5.58 5.58 0 0 1 2.78-7.36l3.62-1.64a5.58 5.58 0 0 1 7.36 2.78 5.58 5.58 0 0 1-2.78 7.36z"/>
        <path fill="#FFF" d="M261.621 65.87v2s.28 6.14-5.78 2.98c-6.06-3.16-5.84-10.84-5.84-10.84s4.66-.5 11.62 5.86z" opacity=".46"/>
        <path fill="#513554" fill-rule="nonzero" d="M255.06 70.703c7.88 4 7.6-3.06 7.6-3.06l-.24-2.44c-8.8-7.56-14.38-7.2-14.38-7.2a13.2 13.2 0 0 0 7.02 12.7zm-5.5-10.68s4.48-.24 11.22 5.62v1.78s.2 5.32-5.66 2.26a10.98 10.98 0 0 1-5.56-9.66z"/>
        <path fill="#513554" d="M264.94 68.8l-4.68-2.14L260 64l4.68 2.14zM247.76 60.522l-.84-.38a2 2 0 0 1-.92-1.42c0-.56.28-.86.72-.66l.84.38a2 2 0 0 1 .92 1.42c.06.66-.26.92-.72.66zM279.74 74.512l-.82-.38a1.8 1.8 0 0 1-.92-1.4c0-.58.26-.88.72-.66l.82.38c.511.295.853.814.92 1.4.06.58-.26.88-.72.66z"/>
        <path fill="#2C4482" fill-rule="nonzero" d="M278.26 71.88A24 24 0 0 0 264 66l.24 2.44a14.5 14.5 0 0 0 8.9 10.62c7.84 3.1 5.12-7.18 5.12-7.18zm-5.38 6a10.76 10.76 0 0 1-6.64-7.88l-.28-1.86a18.6 18.6 0 0 1 11.1 4.56s1.6 7.46-4.18 5.1v.08z"/>
        <path fill="#2C4482" d="M266.197 70.268c-.18-.24-.26-.54-.14-.66l1.4-1.56c.12-.12.38 0 .58.2.2.22.26.52.14.66l-1.4 1.54c-.12.12-.38.04-.58-.18z"/>
        <path fill="#FCFEFF" d="M250.202 62.257c-.2-.24-.26-.54-.14-.66l1.4-1.54c.12-.14.38 0 .56.18.2.24.26.52.14.66l-1.4 1.54c-.12.14-.38.06-.56-.18z"/>
        <path fill="#4264BF" d="M248.492 222.22c7.16 21.02 7.82 43.64 7.16 65.64-.5 16.4-3.1 32.96-2.68 49.36.26 10.76 17.02 10.8 16.74 0-.42-16.86 2.26-33.86 2.72-50.72.64-22.94-.32-46.84-7.78-68.74-3.46-10.14-19.66-5.78-16.16 4.46zM214.338 202.377a246.2 246.2 0 0 1 6.82 41.8c.82 8.32 1.8 16.24.92 24.54-1.76 16.66-4.86 33.66-4.74 50.46 0 10.78 16.82 10.8 16.74 0-.12-17.06 3.08-34.28 4.84-51.22.88-8.52-.32-16.86-1.16-25.38a267.02 267.02 0 0 0-7.26-44.64c-2.86-10.4-19.02-6-16.16 4.44z"/>
        <path fill="#4264BF" d="M228.58 224.138c1.56 1.74-5.1-6.68-3.1-5.48 4.14 2.5 27.4 18.3 32.24 18.38 5.84 0 2.44-5.56 6.78-9.46 4.34-3.9 5.1-9.72 5.5-15.26a9.42 9.42 0 0 0-.42-4.54 9.86 9.86 0 0 0-3.34-3.58c-10.32-7.82-30.66-27.18-45.08-21-16.68 7.16.02 32.66 7.42 40.94z"/>
        <path fill="#DBEFFF" d="M216.642 102.112c-3.06 4-2.7 6.38-2.54 11.76a12 12 0 0 0 8.78 11.24l51.78 14.52s2.98-20-7.24-25.9c-5.5-3.24-14-8.4-20.74-12.48-9.84-6-22.96-8.26-30.04.86z"/>
        <path fill="#FFC2B0" d="M240.04 99.52L244.42 80l12 8-3.58 17.76c-.44 2.92-13.66.4-12.8-6.24z"/>
        <path fill="#FFC2B0" d="M248 51.696s-12-8.32-12 11.9a35.28 35.28 0 0 0 20 31.72c7.18 3.4 16-.96 16.36-8 1.7-10.22 1.72-19.76-1.62-28 .48-8.42-5.34-5.42-15.36-6l-7.38-1.62z"/>
        <path fill="#715154" d="M240.586 91.14s-13.8-5.14-12.5-24.56c1.42-21.02 20.76-19.2 31.5-20.24 4.76-.46 8-1.14 12.94 3.2 4.44 4 .28 12.84-6 13.42-2.52.22-1.38 7-1.88 9.34-.9 4.14-3.48 6.16-4.44 10.18-.96 4.02-6.5 9.76-10.14 10.18-6.56.74-9.48-1.52-9.48-1.52z"/>
        <path fill="#DBEFFF" d="M214.15 195.22c-3.3-1.26-2.52-58 .44-89.22l58.3 27.74c-.3 26.64-3.66 47.66-.46 80.12l-58.28-18.64z"/>
        <path fill="#DBEFFF" d="M252.868 220.041c-14.4-5.26-28.12-11.02-36.18-20.9-4-2.28-3.46-6.32 1.12-8.96 4.56-2.64 11.54-2.92 15.5-.64l36.18 20.9c4 2.28 3.46 6.3-1.1 8.94-4.58 2.64-11.56 2.94-15.52.66z"/>
        <path fill="#DBEFFF" d="M273.2 132.58l-9.6-4.58c-.4 26-3.58 46.82-.44 78.7H263a6.28 6.28 0 0 1-3.78 5.2c-4.58 2.64-11.56 2.92-15.52.64a163.68 163.68 0 0 1-19.7-8.32c8 6.1 18.42 10.34 29.28 14.32 4 2.28 10.94 2 15.52-.66a6.28 6.28 0 0 0 3.78-5.2h.16c-3.2-32.44.16-53.54.46-80.1z"/>
        <path fill="#2C4482" d="M279.083 74.305l-17.8 1.72a1.18 1.18 0 0 1-1.28-1.04 1.2 1.2 0 0 1 1.06-1.28l17.8-1.7a1.16 1.16 0 0 1 1.26 1.04 1.14 1.14 0 0 1-1.04 1.26z"/>
        <path fill="#DCEFFF" d="M261.6 109.481c-13.38-2-22.4 6.4-25.6-12.86a4.3 4.3 0 0 1 5.78 1.26 13.32 13.32 0 0 0 12.56 4.76 4.24 4.24 0 0 1 4 2l3.26 4.84z"/>
        <path fill="#FFC2B0" d="M262.101 127.083a91.6 91.6 0 0 0 7.34 31.66c3.36 7.34 6.8 17.86 14 22.48 16.38 10.46 33.82-16.32 41.56-26.52 4.2-5.52-5.16-10.9-9.3-5.44-4.38 5.78-20.56 31.08-28.9 20.16-8.9-11.64-12.8-28-14-42.24-.56-6.88-11.34-6.94-10.78 0l.08-.1z"/>
        <path fill="#FFF" d="M258.172 125.915c3.26 27.56 12 45.1 24 54 6.32 3.52 12.26-6.48 9.84-12.5-12-10.66-16.2-27.3-17.34-46.28a8.7 8.7 0 0 0-10.32-4.8 8.12 8.12 0 0 0-6.18 9.58z"/>
        <path fill="#FFC2B0" d="M344.34 65.125c-.38 16.28-2.54 32-8.56 47.22-4.5 11.46-12.4 22-18.92 32.34-3.72 5.88 5.6 11.28 9.3 5.44 7.04-11.14 15.4-22.46 20-34.92a150.56 150.56 0 0 0 8.94-50c.16-6.94-10.62-6.94-10.78 0l.02-.08z"/>
        <path fill="#D84177" d="M346.846 52.996c-4.74 7.44-5.24 18.96-6.62 29.82a4.78 4.78 0 0 0 4 6.2l11.66 4.44c2.44.2 4.68-5 5.06-7.5l4.2-27.52a8.78 8.78 0 0 0-6.26-9.88c-4.38-1.18-8.38-.82-12.04 4.44z"/>
        <path fill="#66223D" d="M387.76 61.047L362 54.667l3.74-12.66c7.76-.16 13.22 2.32 19.76 6.76l2.26 12.28z"/>
        <rect width="15.52" height="21.9" x="311.145" y="138.447" fill="#FFC2B0" rx="6.76" transform="rotate(-141.26 318.905 149.397)"/>
        <path fill="#FFF" d="M388.073 151.822c-7.72 23.7-6.62 50-4.58 74.58.96 11.44 2.34 22.86 3.74 34.26.88 7.3 3.26 21.46 3.18 28.82-.12 10.78 15.5 10.46 15.6-.32a276.96 276.96 0 0 0-2-28.5c-1.34-10.98-2.66-22-3.62-32.98-2-23.48-3.52-48.68 3.88-71.42 3.34-10.28-12.82-14.68-16.16-4.44h-.04zM350.791 147.925a260.56 260.56 0 0 0-7.1 43.02c-.9 8.72-2.28 17.46-1.42 26.2 1.66 16.7 4.74 33.64 4.62 50.46 0 10.78 16.68 10.78 16.74 0 .12-16.56-2.88-33.28-4.54-49.72-.82-8.24.3-16.28 1.1-24.52a244.9 244.9 0 0 1 6.74-41c2.88-10.4-13.28-14.84-16.14-4.44z"/>
        <path fill="#FFF" d="M362.596 174.138c1.54 1.74-5.1-6.68-3.1-5.48 4.14 2.5 27.38 18.3 32.22 18.38 5.86 0 2.44-5.56 6.8-9.46 4.36-3.9 5.1-9.72 5.5-15.26a9.42 9.42 0 0 0-.42-4.54 9.86 9.86 0 0 0-3.34-3.58c-10.34-7.82-30.66-27.18-45.1-21-16.68 7.16.04 32.66 7.44 40.94z"/>
        <path fill="#D84177" d="M350.65 50.082c-3.06 4-2.7 6.38-2.56 11.76a12 12 0 0 0 8.8 11.24l51.78 14.52s2.98-20-7.24-26c-5.5-3.22-14-8.38-20.74-12.46-9.86-5.92-22.98-8.08-30.04.94z"/>
        <path fill="#D84177" d="M348 145.22c1.54 2 3.5-53.88.46-89.22l58.3 27.74c-.3 26.64-3.66 47.66-.48 80.12L348 145.22z"/>
        <path fill="#D84177" d="M386.868 168.041c-14.4-5.26-28.12-11.02-36.18-20.9-4-2.28-3.46-6.32 1.12-8.96 4.56-2.64 11.54-2.92 15.5-.64l36.18 20.9c4 2.28 3.46 6.3-1.12 8.94-4.56 2.64-11.54 2.94-15.5.66z"/>
        <path fill="#FFF" d="M376.302 57.64s-6.34 0-7.54-11.06l-4.22-.58c-.58.46-1.8.14-2.36 3.84a16.7 16.7 0 0 0 .34 6.6l1.58 6.28a2.12 2.12 0 0 0 3.26 1.22l8.94-6.3z"/>
        <path fill="#FFC2B0" d="M397.538 76.277c6.54 14.72 22.66 24.68 22 42-.68 18-12.28 28-24 40-4.82 5 2.8 12.64 7.62 7.62 13-13.52 25.16-24.74 26.9-44.5a38 38 0 0 0-6-25.68c-5.76-8.54-13.02-15.32-17.28-24.9-2.8-6.34-12-.86-9.3 5.44l.06.02z"/>
        <path fill="#D84177" d="M391.034 74.678l14.1 25.26c5.68 6.22 20-6.1 15.88-11.62l-15.64-23a8.6 8.6 0 0 0-11.36-2 8.6 8.6 0 0 0-2.98 11.36z"/>
        <path fill="#715154" d="M252.437 84.363c-.66.48-2.14 14.54 9.68 12.26 11.82-2.28 9.44-14.1 9.44-14.1s-9.4 2.44-12-9.2c-2.6-11.64-7.12 11.04-7.12 11.04z"/>
        <path fill="#FFC2B0" d="M262.61 79.651c.28 3.32-1.42 6.18-3.8 6.38a3.4 3.4 0 0 1-.78 0 5.86 5.86 0 0 1-4-5.62c-.28-3.34 1.42-6.2 3.8-6.4 2.38-.2 4.48 2.3 4.78 5.64zM370 53.88L364 32l15.04 4.16 4.82 17.88c1.1 2.9-9.5 11-13.86-.16z"/>
        <rect width="28.18" height="45.64" x="352.753" y="4.457" fill="#FFC2B0" rx="11.96" transform="rotate(-1.91 366.843 27.277)"/>
        <path fill="#715255" d="M367.006 21.183a17.88 17.88 0 0 1-12.24.26c-5.38-2-9.18-9.62-4.96-13.54 2.28-2.12 8.12-4 12.98-6 13.76-5.6 28.7 1.46 29.22 17.2 0 0 2.3 19.44-8.56 23.84a2.38 2.38 0 0 1-2.54-.52 2.44 2.44 0 0 1-.54-2.82c1-2.26 1.9-6.64-3.54-10a4.6 4.6 0 0 1-2-3.46 6 6 0 0 0-7.82-4.96z"/>
        <path fill="#FFC2B0" d="M383.167 37.166a2.86 2.86 0 0 1-4.9-1.22 6.88 6.88 0 0 1 2-7 2.86 2.86 0 0 1 4.9 1.22 6.88 6.88 0 0 1-2 7z"/>
        <path fill="#EA8A6C" d="M370 49.22s6.16-3.16 6.18-3.22a16.3 16.3 0 0 1-5.16 6.24L370 49.22z"/>
        <path fill="#FFF" d="M372 57.66s7.22 2.48 14.38-7.66l4.7 5.84c.4.9.46 1-.28 1.8l-9.48 10.28a2.44 2.44 0 0 1-3.88-.26l-5.44-10z"/>
    </g>
</svg>
